[
  {
    "objectCode":"STORE_MANAGER",
    "title":"Store Manager",
    "npCharacterRequestCodes":["GREETING","FOUND_EVERYTHING_QUESTION"],
    "scenarioCodes":["PRODUCE_SECTION","MEAT_COUNTER","CHECKOUT_LANE"]
  },
  {
    "objectCode":"SECURITY_GUARD",
    "title":"Security Guard",
    "npCharacterRequestCodes":["GREETING","ACCUSATION"],
    "scenarioCodes":["PRODUCE_SECTION","MEAT_COUNTER","CHECKOUT_LANE"]
  },
  {
    "objectCode":"STORE_JANITOR",
    "title":"Janitor",
    "npCharacterRequestCodes":["GREETING"],
    "scenarioCodes":["PRODUCE_SECTION","MEAT_COUNTER","CHECKOUT_LANE"]
  },
  {
    "objectCode":"PRODUCE_CLERK",
    "title":"Produce Clerk",
    "npCharacterRequestCodes":["FOUND_EVERYTHING_QUESTION","PRODUCE_SPECIAL"],
    "scenarioCodes":["PRODUCE_SECTION"]
  },
  {
    "objectCode":"BUTCHER",
    "title":"Butcher",
    "npCharacterRequestCodes":["FOUND_EVERYTHING_QUESTION","MEAT_SPECIAL"],
    "scenarioCodes":["MEAT_COUNTER"]
  },
  {
    "objectCode":"CASHIER",
    "title":"Cashier",
    "npCharacterRequestCodes":["FOUND_EVERYTHING_QUESTION","CASH_CREDIT"],
    "scenarioCodes":["CHECKOUT_LANE"]
  }
]